^F:\C++\SINGLELINKEDLIST\SINGLELINKEDLIST\DEBUG\SINGLELINKEDLIST.OBJ
F:\C++\SINGLELINKEDLIST\DEBUG\SINGLELINKEDLIST.EXE
F:\C++\SINGLELINKEDLIST\DEBUG\SINGLELINKEDLIST.ILK
F:\C++\SINGLELINKEDLIST\DEBUG\SINGLELINKEDLIST.PDB
